Sprint_4/simulation/qsim/Mod_Teste.msim.vcd
$comment
	File created using the following command:
		vcd file Mod_Teste.msim.vcd -direction
$end
$date
	Thu May 21 14:56:17 2026
$end
$version
	ModelSim Version 10.1d
$end
$timescale
	1ps
$end
$scope module Mod_Teste_vlg_vec_tst $end
$var reg 1 ! CLOCK_27 $end
$var reg 1 " CLOCK_50 $end
$var reg 36 # treg_GPIO_0 [35:0] $end
$var reg 36 $ treg_GPIO_1 [35:0] $end
$var reg 4 % KEY [3:0] $end
$var reg 8 & treg_LCD_DATA [7:0] $end
$var reg 18 ' SW [17:0] $end
$var reg 1 ( UART_RXD $end
$var wire 1 ) GPIO_0 [35] $end
$var wire 1 * GPIO_0 [34] $end
$var wire 1 + GPIO_0 [33] $end
$var wire 1 , GPIO_0 [32] $end
$var wire 1 - GPIO_0 [31] $end
$var wire 1 . GPIO_0 [30] $end
$var wire 1 / GPIO_0 [29] $end
$var wire 1 0 GPIO_0 [28] $end
$var wire 1 1 GPIO_0 [27] $end
$var wire 1 2 GPIO_0 [26] $end
$var wire 1 3 GPIO_0 [25] $end
$var wire 1 4 GPIO_0 [24] $end
$var wire 1 5 GPIO_0 [23] $end
$var wire 1 6 GPIO_0 [22] $end
$var wire 1 7 GPIO_0 [21] $end
$var wire 1 8 GPIO_0 [20] $end
$var wire 1 9 GPIO_0 [19] $end
$var wire 1 : GPIO_0 [18] $end
$var wire 1 ; GPIO_0 [17] $end
$var wire 1 < GPIO_0 [16] $end
$var wire 1 = GPIO_0 [15] $end
$var wire 1 > GPIO_0 [14] $end
$var wire 1 ? GPIO_0 [13] $end
$var wire 1 @ GPIO_0 [12] $end
$var wire 1 A GPIO_0 [11] $end
$var wire 1 B GPIO_0 [10] $end
$var wire 1 C GPIO_0 [9] $end
$var wire 1 D GPIO_0 [8] $end
$var wire 1 E GPIO_0 [7] $end
$var wire 1 F GPIO_0 [6] $end
$var wire 1 G GPIO_0 [5] $end
$var wire 1 H GPIO_0 [4] $end
$var wire 1 I GPIO_0 [3] $end
$var wire 1 J GPIO_0 [2] $end
$var wire 1 K GPIO_0 [1] $end
$var wire 1 L GPIO_0 [0] $end
$var wire 1 M GPIO_1 [35] $end
$var wire 1 N GPIO_1 [34] $end
$var wire 1 O GPIO_1 [33] $end
$var wire 1 P GPIO_1 [32] $end
$var wire 1 Q GPIO_1 [31] $end
$var wire 1 R GPIO_1 [30] $end
$var wire 1 S GPIO_1 [29] $end
$var wire 1 T GPIO_1 [28] $end
$var wire 1 U GPIO_1 [27] $end
$var wire 1 V GPIO_1 [26] $end
$var wire 1 W GPIO_1 [25] $end
$var wire 1 X GPIO_1 [24] $end
$var wire 1 Y GPIO_1 [23] $end
$var wire 1 Z GPIO_1 [22] $end
$var wire 1 [ GPIO_1 [21] $end
$var wire 1 \ GPIO_1 [20] $end
$var wire 1 ] GPIO_1 [19] $end
$var wire 1 ^ GPIO_1 [18] $end
$var wire 1 _ GPIO_1 [17] $end
$var wire 1 ` GPIO_1 [16] $end
$var wire 1 a GPIO_1 [15] $end
$var wire 1 b GPIO_1 [14] $end
$var wire 1 c GPIO_1 [13] $end
$var wire 1 d GPIO_1 [12] $end
$var wire 1 e GPIO_1 [11] $end
$var wire 1 f GPIO_1 [10] $end
$var wire 1 g GPIO_1 [9] $end
$var wire 1 h GPIO_1 [8] $end
$var wire 1 i GPIO_1 [7] $end
$var wire 1 j GPIO_1 [6] $end
$var wire 1 k GPIO_1 [5] $end
$var wire 1 l GPIO_1 [4] $end
$var wire 1 m GPIO_1 [3] $end
$var wire 1 n GPIO_1 [2] $end
$var wire 1 o GPIO_1 [1] $end
$var wire 1 p GPIO_1 [0] $end
$var wire 1 q HEX0 [0] $end
$var wire 1 r HEX0 [1] $end
$var wire 1 s HEX0 [2] $end
$var wire 1 t HEX0 [3] $end
$var wire 1 u HEX0 [4] $end
$var wire 1 v HEX0 [5] $end
$var wire 1 w HEX0 [6] $end
$var wire 1 x HEX1 [0] $end
$var wire 1 y HEX1 [1] $end
$var wire 1 z HEX1 [2] $end
$var wire 1 { HEX1 [3] $end
$var wire 1 | HEX1 [4] $end
$var wire 1 } HEX1 [5] $end
$var wire 1 ~ HEX1 [6] $end
$var wire 1 !! HEX2 [0] $end
$var wire 1 "! HEX2 [1] $end
$var wire 1 #! HEX2 [2] $end
$var wire 1 $! HEX2 [3] $end
$var wire 1 %! HEX2 [4] $end
$var wire 1 &! HEX2 [5] $end
$var wire 1 '! HEX2 [6] $end
$var wire 1 (! HEX3 [0] $end
$var wire 1 )! HEX3 [1] $end
$var wire 1 *! HEX3 [2] $end
$var wire 1 +! HEX3 [3] $end
$var wire 1 ,! HEX3 [4] $end
$var wire 1 -! HEX3 [5] $end
$var wire 1 .! HEX3 [6] $end
$var wire 1 /! HEX4 [0] $end
$var wire 1 0! HEX4 [1] $end
$var wire 1 1! HEX4 [2] $end
$var wire 1 2! HEX4 [3] $end
$var wire 1 3! HEX4 [4] $end
$var wire 1 4! HEX4 [5] $end
$var wire 1 5! HEX4 [6] $end
$var wire 1 6! HEX5 [0] $end
$var wire 1 7! HEX5 [1] $end
$var wire 1 8! HEX5 [2] $end
$var wire 1 9! HEX5 [3] $end
$var wire 1 :! HEX5 [4] $end
$var wire 1 ;! HEX5 [5] $end
$var wire 1 <! HEX5 [6] $end
$var wire 1 =! HEX6 [0] $end
$var wire 1 >! HEX6 [1] $end
$var wire 1 ?! HEX6 [2] $end
$var wire 1 @! HEX6 [3] $end
$var wire 1 A! HEX6 [4] $end
$var wire 1 B! HEX6 [5] $end
$var wire 1 C! HEX6 [6] $end
$var wire 1 D! HEX7 [0] $end
$var wire 1 E! HEX7 [1] $end
$var wire 1 F! HEX7 [2] $end
$var wire 1 G! HEX7 [3] $end
$var wire 1 H! HEX7 [4] $end
$var wire 1 I! HEX7 [5] $end
$var wire 1 J! HEX7 [6] $end
$var wire 1 K! LCD_BLON $end
$var wire 1 L! LCD_DATA [7] $end
$var wire 1 M! LCD_DATA [6] $end
$var wire 1 N! LCD_DATA [5] $end
$var wire 1 O! LCD_DATA [4] $end
$var wire 1 P! LCD_DATA [3] $end
$var wire 1 Q! LCD_DATA [2] $end
$var wire 1 R! LCD_DATA [1] $end
$var wire 1 S! LCD_DATA [0] $end
$var wire 1 T! LCD_EN $end
$var wire 1 U! LCD_ON $end
$var wire 1 V! LCD_RS $end
$var wire 1 W! LCD_RW $end
$var wire 1 X! LEDG [8] $end
$var wire 1 Y! LEDG [7] $end
$var wire 1 Z! LEDG [6] $end
$var wire 1 [! LEDG [5] $end
$var wire 1 \! LEDG [4] $end
$var wire 1 ]! LEDG [3] $end
$var wire 1 ^! LEDG [2] $end
$var wire 1 _! LEDG [1] $end
$var wire 1 `! LEDG [0] $end
$var wire 1 a! LEDR [17] $end
$var wire 1 b! LEDR [16] $end
$var wire 1 c! LEDR [15] $end
$var wire 1 d! LEDR [14] $end
$var wire 1 e! LEDR [13] $end
$var wire 1 f! LEDR [12] $end
$var wire 1 g! LEDR [11] $end
$var wire 1 h! LEDR [10] $end
$var wire 1 i! LEDR [9] $end
$var wire 1 j! LEDR [8] $end
$var wire 1 k! LEDR [7] $end
$var wire 1 l! LEDR [6] $end
$var wire 1 m! LEDR [5] $end
$var wire 1 n! LEDR [4] $end
$var wire 1 o! LEDR [3] $end
$var wire 1 p! LEDR [2] $end
$var wire 1 q! LEDR [1] $end
$var wire 1 r! LEDR [0] $end
$var wire 1 s! UART_TXD $end
$var wire 1 t! sampler $end
$scope module i1 $end
$var wire 1 u! gnd $end
$var wire 1 v! vcc $end
$var wire 1 w! unknown $end
$var tri1 1 x! devclrn $end
$var tri1 1 y! devpor $end
$var tri1 1 z! devoe $end
$var wire 1 {! MyLCD|u0|Add0~0_combout $end
$var wire 1 |! MyLCD|mDLY[1]~20_combout $end
$var wire 1 }! MyLCD|mDLY[3]~24_combout $end
$var wire 1 ~! MyLCD|mDLY[5]~28_combout $end
$var wire 1 !" MyLCD|mDLY[12]~42_combout $end
$var wire 1 "" MyLCD|mDLY[15]~48_combout $end
$var wire 1 #" MyLCD|LessThan0~0_combout $end
$var wire 1 $" MyLCD|Mux1~0_combout $end
$var wire 1 %" MyLCD|u0|Selector2~1_combout $end
$var wire 1 &" MyLCD|u0|Selector8~0_combout $end
$var wire 1 '" MyLCD|Selector3~0_combout $end
$var wire 1 (" CLOCK_50~combout $end
$var wire 1 )" CLOCK_50~clkctrl_outclk $end
$var wire 1 *" MyLCD|LUT_INDEX[0]~7 $end
$var wire 1 +" MyLCD|LUT_INDEX[1]~8_combout $end
$var wire 1 ," ~GND~combout $end
$var wire 1 -" MyLCD|LUT_INDEX[1]~9 $end
$var wire 1 ." MyLCD|LUT_INDEX[2]~11 $end
$var wire 1 /" MyLCD|LUT_INDEX[3]~12_combout $end
$var wire 1 0" MyLCD|mDLY[0]~18_combout $end
$var wire 1 1" MyLCD|mDLY[7]~32_combout $end
$var wire 1 2" MyLCD|Selector3~1_combout $end
$var wire 1 3" MyLCD|mLCD_ST.000010~regout $end
$var wire 1 4" MyLCD|LessThan0~1_combout $end
$var wire 1 5" MyLCD|LessThan0~2_combout $end
$var wire 1 6" MyLCD|mDLY[13]~44_combout $end
$var wire 1 7" MyLCD|LessThan0~3_combout $end
$var wire 1 8" MyLCD|LessThan0~4_combout $end
$var wire 1 9" MyLCD|LessThan0~5_combout $end
$var wire 1 :" MyLCD|mDLY[0]~19 $end
$var wire 1 ;" MyLCD|mDLY[1]~21 $end
$var wire 1 <" MyLCD|mDLY[2]~22_combout $end
$var wire 1 =" MyLCD|mDLY[2]~23 $end
$var wire 1 >" MyLCD|mDLY[3]~25 $end
$var wire 1 ?" MyLCD|mDLY[4]~26_combout $end
$var wire 1 @" MyLCD|mDLY[4]~27 $end
$var wire 1 A" MyLCD|mDLY[5]~29 $end
$var wire 1 B" MyLCD|mDLY[6]~30_combout $end
$var wire 1 C" MyLCD|mDLY[6]~31 $end
$var wire 1 D" MyLCD|mDLY[7]~33 $end
$var wire 1 E" MyLCD|mDLY[8]~34_combout $end
$var wire 1 F" MyLCD|mDLY[8]~35 $end
$var wire 1 G" MyLCD|mDLY[9]~36_combout $end
$var wire 1 H" MyLCD|mDLY[9]~37 $end
$var wire 1 I" MyLCD|mDLY[10]~38_combout $end
$var wire 1 J" MyLCD|mDLY[10]~39 $end
$var wire 1 K" MyLCD|mDLY[11]~40_combout $end
$var wire 1 L" MyLCD|mDLY[11]~41 $end
$var wire 1 M" MyLCD|mDLY[12]~43 $end
$var wire 1 N" MyLCD|mDLY[13]~45 $end
$var wire 1 O" MyLCD|mDLY[14]~46_combout $end
$var wire 1 P" MyLCD|mDLY[14]~47 $end
$var wire 1 Q" MyLCD|mDLY[15]~49 $end
$var wire 1 R" MyLCD|mDLY[16]~50_combout $end
$var wire 1 S" MyLCD|mDLY[16]~51 $end
$var wire 1 T" MyLCD|mDLY[17]~52_combout $end
$var wire 1 U" MyLCD|Selector4~0_combout $end
$var wire 1 V" MyLCD|mLCD_ST.000011~regout $end
$var wire 1 W" MyLCD|LUT_INDEX[3]~13 $end
$var wire 1 X" MyLCD|LUT_INDEX[4]~15 $end
$var wire 1 Y" MyLCD|LUT_INDEX[5]~16_combout $end
$var wire 1 Z" MyLCD|LUT_INDEX[2]~10_combout $end
$var wire 1 [" MyLCD|LUT_INDEX[4]~14_combout $end
$var wire 1 \" MyLCD|LessThan1~0_combout $end
$var wire 1 ]" MyLCD|LessThan1~1_combout $end
$var wire 1 ^" MyLCD|LUT_INDEX[0]~6_combout $end
$var wire 1 _" MyLCD|Mux6~0_combout $end
$var wire 1 `" MyLCD|Mux6~1_combout $end
$var wire 1 a" MyLCD|mLCD_ST.000000~0_combout $end
$var wire 1 b" MyLCD|mLCD_ST.000000~regout $end
$var wire 1 c" MyLCD|Mux5~0_combout $end
$var wire 1 d" MyLCD|Mux4~0_combout $end
$var wire 1 e" MyLCD|Mux3~0_combout $end
$var wire 1 f" MyLCD|Mux2~3_combout $end
$var wire 1 g" MyLCD|Mux2~0_combout $end
$var wire 1 h" MyLCD|Mux2~1_combout $end
$var wire 1 i" MyLCD|Mux2~2_combout $end
$var wire 1 j" MyLCD|Mux2~4_combout $end
$var wire 1 k" MyLCD|Mux1~1_combout $end
$var wire 1 l" MyLCD|Mux0~0_combout $end
$var wire 1 m" MyLCD|Mux0~1_combout $end
$var wire 1 n" MyLCD|LUT_DATA~0_combout $end
$var wire 1 o" MyLCD|LUT_DATA~1_combout $end
$var wire 1 p" dec|WideOr6~0_combout $end
$var wire 1 q" dec|WideOr5~0_combout $end
$var wire 1 r" dec|WideOr4~0_combout $end
$var wire 1 s" dec|WideOr3~0_combout $end
$var wire 1 t" dec|WideOr2~0_combout $end
$var wire 1 u" dec|WideOr1~0_combout $end
$var wire 1 v" dec|WideOr0~0_combout $end
$var wire 1 w" MyLCD|u0|Selector4~0_combout $end
$var wire 1 x" MyLCD|u0|Selector5~0_combout $end
$var wire 1 y" MyLCD|u0|Add0~1 $end
$var wire 1 z" MyLCD|u0|Add0~2_combout $end
$var wire 1 {" MyLCD|u0|Selector7~0_combout $end
$var wire 1 |" MyLCD|u0|oDone~0_combout $end
$var wire 1 }" MyLCD|u0|oDone~1_combout $end
$var wire 1 ~" MyLCD|u0|oDone~regout $end
$var wire 1 !# MyLCD|Selector2~0_combout $end
$var wire 1 "# MyLCD|Selector2~1_combout $end
$var wire 1 ## MyLCD|mLCD_ST.000001~regout $end
$var wire 1 $# MyLCD|Selector0~0_combout $end
$var wire 1 %# MyLCD|Selector0~1_combout $end
$var wire 1 &# MyLCD|mLCD_Start~regout $end
$var wire 1 '# MyLCD|u0|preStart~feeder_combout $end
$var wire 1 (# MyLCD|u0|preStart~regout $end
$var wire 1 )# MyLCD|u0|mStart~0_combout $end
$var wire 1 *# MyLCD|u0|mStart~regout $end
$var wire 1 +# MyLCD|u0|Add0~3 $end
$var wire 1 ,# MyLCD|u0|Add0~4_combout $end
$var wire 1 -# MyLCD|u0|Selector6~0_combout $end
$var wire 1 .# MyLCD|u0|Add0~5 $end
$var wire 1 /# MyLCD|u0|Add0~6_combout $end
$var wire 1 0# MyLCD|u0|Selector5~1_combout $end
$var wire 1 1# MyLCD|u0|Add0~7 $end
$var wire 1 2# MyLCD|u0|Add0~8_combout $end
$var wire 1 3# MyLCD|u0|Selector4~1_combout $end
$var wire 1 4# MyLCD|u0|Selector2~0_combout $end
$var wire 1 5# MyLCD|u0|ST.10~regout $end
$var wire 1 6# MyLCD|u0|ST~14_combout $end
$var wire 1 7# MyLCD|u0|ST.11~regout $end
$var wire 1 8# MyLCD|u0|ST.00~0_combout $end
$var wire 1 9# MyLCD|u0|ST.00~regout $end
$var wire 1 :# MyLCD|u0|ST.01~0_combout $end
$var wire 1 ;# MyLCD|u0|ST.01~regout $end
$var wire 1 <# MyLCD|u0|Selector3~0_combout $end
$var wire 1 =# MyLCD|u0|LCD_EN~regout $end
$var wire 1 ># MyLCD|WideOr0~0_combout $end
$var wire 1 ?# MyLCD|WideOr0~1_combout $end
$var wire 1 @# MyLCD|mLCD_RS~regout $end
$var wire 1 A# MyLCD|mDLY [17] $end
$var wire 1 B# MyLCD|mDLY [16] $end
$var wire 1 C# MyLCD|mDLY [15] $end
$var wire 1 D# MyLCD|mDLY [14] $end
$var wire 1 E# MyLCD|mDLY [13] $end
$var wire 1 F# MyLCD|mDLY [12] $end
$var wire 1 G# MyLCD|mDLY [11] $end
$var wire 1 H# MyLCD|mDLY [10] $end
$var wire 1 I# MyLCD|mDLY [9] $end
$var wire 1 J# MyLCD|mDLY [8] $end
$var wire 1 K# MyLCD|mDLY [7] $end
$var wire 1 L# MyLCD|mDLY [6] $end
$var wire 1 M# MyLCD|mDLY [5] $end
$var wire 1 N# MyLCD|mDLY [4] $end
$var wire 1 O# MyLCD|mDLY [3] $end
$var wire 1 P# MyLCD|mDLY [2] $end
$var wire 1 Q# MyLCD|mDLY [1] $end
$var wire 1 R# MyLCD|mDLY [0] $end
$var wire 1 S# MyLCD|LUT_INDEX [5] $end
$var wire 1 T# MyLCD|LUT_INDEX [4] $end
$var wire 1 U# MyLCD|LUT_INDEX [3] $end
$var wire 1 V# MyLCD|LUT_INDEX [2] $end
$var wire 1 W# MyLCD|LUT_INDEX [1] $end
$var wire 1 X# MyLCD|LUT_INDEX [0] $end
$var wire 1 Y# MyLCD|mLCD_DATA [7] $end
$var wire 1 Z# MyLCD|mLCD_DATA [6] $end
$var wire 1 [# MyLCD|mLCD_DATA [5] $end
$var wire 1 \# MyLCD|mLCD_DATA [4] $end
$var wire 1 ]# MyLCD|mLCD_DATA [3] $end
$var wire 1 ^# MyLCD|mLCD_DATA [2] $end
$var wire 1 _# MyLCD|mLCD_DATA [1] $end
$var wire 1 `# MyLCD|mLCD_DATA [0] $end
$var wire 1 a# MyLCD|u0|Cont [4] $end
$var wire 1 b# MyLCD|u0|Cont [3] $end
$var wire 1 c# MyLCD|u0|Cont [2] $end
$var wire 1 d# MyLCD|u0|Cont [1] $end
$var wire 1 e# MyLCD|u0|Cont [0] $end
$var wire 1 f# SW~combout [17] $end
$var wire 1 g# SW~combout [16] $end
$var wire 1 h# SW~combout [15] $end
$var wire 1 i# SW~combout [14] $end
$var wire 1 j# SW~combout [13] $end
$var wire 1 k# SW~combout [12] $end
$var wire 1 l# SW~combout [11] $end
$var wire 1 m# SW~combout [10] $end
$var wire 1 n# SW~combout [9] $end
$var wire 1 o# SW~combout [8] $end
$var wire 1 p# SW~combout [7] $end
$var wire 1 q# SW~combout [6] $end
$var wire 1 r# SW~combout [5] $end
$var wire 1 s# SW~combout [4] $end
$var wire 1 t# SW~combout [3] $end
$var wire 1 u# SW~combout [2] $end
$var wire 1 v# SW~combout [1] $end
$var wire 1 w# SW~combout [0] $end
$var wire 1 x# KEY~combout [3] $end
$var wire 1 y# KEY~combout [2] $end
$var wire 1 z# KEY~combout [1] $end
$var wire 1 {# KEY~combout [0] $end
$upscope $end
$upscope $end
$enddefinitions $end
#0
$dumpvars
x!
x"
bx #
bx $
bx %
bx &
bx0001xxxxxxxx '
x(
xL
xK
xJ
xI
xH
xG
xF
xE
xD
xC
xB
xA
x@
x?
x>
x=
x<
x;
x:
x9
x8
x7
x6
x5
x4
x3
x2
x1
x0
x/
x.
x-
x,
x+
x*
x)
xp
xo
xn
xm
xl
xk
xj
xi
xh
xg
xf
xe
xd
xc
xb
xa
x`
x_
x^
x]
x\
x[
xZ
xY
xX
xW
xV
xU
xT
xS
xR
xQ
xP
xO
xN
xM
0w
0v
0u
0t
0s
0r
0q
0~
0}
0|
0{
0z
0y
0x
0'!
0&!
0%!
0$!
0#!
0"!
0!!
1.!
1-!
1,!
1+!
0*!
0)!
1(!
05!
04!
03!
02!
01!
00!
0/!
0<!
0;!
0:!
09!
08!
07!
06!
0C!
0B!
0A!
0@!
0?!
0>!
0=!
0J!
0I!
0H!
0G!
0F!
0E!
0D!
1K!
xS!
xR!
xQ!
xP!
xO!
xN!
xM!
xL!
0T!
1U!
0V!
0W!
0`!
0_!
0^!
0]!
0\!
0[!
0Z!
0Y!
0X!
0r!
0q!
0p!
0o!
0n!
0m!
0l!
0k!
0j!
0i!
0h!
0g!
0f!
0e!
0d!
0c!
0b!
0a!
0s!
xt!
0u!
1v!
xw!
1x!
1y!
1z!
1{!
0|!
0}!
0~!
0!"
0""
0#"
0$"
0%"
0&"
0'"
x("
x)"
0*"
0+"
0,"
1-"
0."
0/"
10"
01"
02"
03"
04"
05"
06"
07"
08"
09"
0:"
1;"
0<"
0="
1>"
0?"
0@"
1A"
0B"
0C"
1D"
0E"
0F"
0G"
1H"
0I"
0J"
0K"
1L"
0M"
1N"
0O"
0P"
1Q"
0R"
0S"
0T"
0U"
0V"
1W"
0X"
0Y"
0Z"
0["
1\"
0]"
1^"
1_"
0`"
1a"
0b"
0c"
0d"
1e"
0f"
0g"
0h"
0i"
1j"
1k"
0l"
0m"
0n"
0o"
0p"
1q"
1r"
1s"
0t"
0u"
1v"
0w"
1x"
0y"
0z"
0{"
0|"
0}"
0~"
1!#
1"#
0##
0$#
1%#
0&#
0'#
0(#
0)#
0*#
1+#
0,#
0-#
0.#
0/#
00#
11#
02#
03#
04#
05#
06#
07#
18#
09#
1:#
0;#
0<#
0=#
0>#
0?#
0@#
0R#
0Q#
0P#
0O#
0N#
0M#
0L#
0K#
0J#
0I#
0H#
0G#
0F#
0E#
0D#
0C#
0B#
0A#
0X#
0W#
0V#
0U#
0T#
0S#
0`#
0_#
0^#
0]#
0\#
0[#
0Z#
0Y#
0e#
0d#
0c#
0b#
0a#
zw#
zv#
zu#
zt#
zs#
zr#
zq#
zp#
1o#
0n#
0m#
0l#
zk#
zj#
zi#
zh#
zg#
zf#
x{#
zz#
zy#
zx#
$end
#2372
bx0000xxxxxxxx '
0o#
0t!
0v"
0s"
0r"
0q"
0(!
0+!
0,!
0-!
#27871
bx0001xxxxxxxx '
1o#
1t!
1v"
1s"
1r"
1q"
1(!
1+!
1,!
1-!
#56928
bx0000xxxxxxxx '
0o#
0t!
0v"
0s"
0r"
0q"
0(!
0+!
0,!
0-!
#58114
bx0010xxxxxxxx '
1n#
1t!
1t"
1q"
1p"
1*!
1-!
0.!
#93694
bx0000xxxxxxxx '
0n#
0t!
0t"
0q"
0p"
0*!
0-!
1.!
#94880
bx0001xxxxxxxx '
bx0011xxxxxxxx '
1o#
1n#
1t!
1r"
1q"
1p"
1,!
1-!
0.!
#142320
bx0010xxxxxxxx '
bx0000xxxxxxxx '
0o#
0n#
0t!
0r"
0q"
0p"
0,!
0-!
1.!
#145285
bx0100xxxxxxxx '
1m#
1t!
1v"
1s"
1r"
1p"
1(!
1+!
1,!
0.!
#177307
bx0000xxxxxxxx '
0m#
0t!
0v"
0s"
0r"
0p"
0(!
0+!
0,!
1.!
#177900
bx0001xxxxxxxx '
bx0101xxxxxxxx '
1o#
1m#
1t!
1u"
1r"
1p"
1)!
1,!
0.!
#221782
bx0100xxxxxxxx '
bx0000xxxxxxxx '
0o#
0m#
0t!
0u"
0r"
0p"
0)!
0,!
1.!
#224153
bx0010xxxxxxxx '
bx0110xxxxxxxx '
1n#
1m#
1t!
1u"
1p"
1)!
0.!
#253211
bx0100xxxxxxxx '
bx0000xxxxxxxx '
0n#
0m#
0t!
0u"
0p"
0)!
1.!
#255583
bx0001xxxxxxxx '
bx0011xxxxxxxx '
bx0111xxxxxxxx '
1o#
1n#
1m#
1t!
1s"
1r"
1q"
1+!
1,!
1-!
#297093
bx0110xxxxxxxx '
bx0100xxxxxxxx '
bx0000xxxxxxxx '
0o#
0n#
0m#
0t!
0s"
0r"
0q"
0+!
0,!
0-!
#298279
bx1000xxxxxxxx '
1l#
1t!
1p"
0.!
#339196
bx1001xxxxxxxx '
1o#
0t!
1r"
1,!
#374776
bx0001xxxxxxxx '
bx0000xxxxxxxx '
0o#
0l#
1t!
0r"
0p"
0,!
1.!
#375369
bx0010xxxxxxxx '
bx1010xxxxxxxx '
1n#
1l#
0t!
1v"
1u"
1t"
1s"
1r"
1q"
1(!
1)!
1*!
1+!
1,!
1-!
#406797
bx1000xxxxxxxx '
bx0000xxxxxxxx '
0n#
0l#
1t!
0v"
0u"
0t"
0s"
0r"
0q"
0(!
0)!
0*!
0+!
0,!
0-!
#407391
bx0001xxxxxxxx '
bx0011xxxxxxxx '
bx1011xxxxxxxx '
1o#
1n#
1l#
0t!
1v"
1u"
1t"
1s"
1r"
1q"
1(!
1)!
1*!
1+!
1,!
1-!
#449494
bx1010xxxxxxxx '
bx1000xxxxxxxx '
bx0000xxxxxxxx '
0o#
0n#
0l#
1t!
0v"
0u"
0t"
0s"
0r"
0q"
0(!
0)!
0*!
0+!
0,!
0-!
#451272
bx0100xxxxxxxx '
bx1100xxxxxxxx '
1m#
1l#
0t!
1v"
1u"
1t"
1s"
1r"
1q"
1(!
1)!
1*!
1+!
1,!
1-!
#482109
bx1000xxxxxxxx '
bx0000xxxxxxxx '
0m#
0l#
1t!
0v"
0u"
0t"
0s"
0r"
0q"
0(!
0)!
0*!
0+!
0,!
0-!
#485667
bx0001xxxxxxxx '
bx0101xxxxxxxx '
bx1101xxxxxxxx '
1o#
1m#
1l#
0t!
1v"
1u"
1t"
1s"
1r"
1q"
1(!
1)!
1*!
1+!
1,!
1-!
#518282
bx1100xxxxxxxx '
bx1000xxxxxxxx '
bx0000xxxxxxxx '
0o#
0m#
0l#
1t!
0v"
0u"
0t"
0s"
0r"
0q"
0(!
0)!
0*!
0+!
0,!
0-!
#521247
bx0010xxxxxxxx '
bx0110xxxxxxxx '
bx1110xxxxxxxx '
1n#
1m#
1l#
0t!
1v"
1u"
1t"
1s"
1r"
1q"
1(!
1)!
1*!
1+!
1,!
1-!
#565129
bx1100xxxxxxxx '
bx1000xxxxxxxx '
bx0000xxxxxxxx '
0n#
0m#
0l#
1t!
0v"
0u"
0t"
0s"
0r"
0q"
0(!
0)!
0*!
0+!
0,!
0-!
#568094
bx0001xxxxxxxx '
bx0011xxxxxxxx '
bx0111xxxxxxxx '
bx1111xxxxxxxx '
1o#
1n#
1m#
1l#
0t!
1v"
1u"
1t"
1s"
1r"
1q"
1(!
1)!
1*!
1+!
1,!
1-!
#711600
bx1110xxxxxxxx '
bx1100xxxxxxxx '
bx1000xxxxxxxx '
bx0000xxxxxxxx '
0o#
0n#
0m#
0l#
1t!
0v"
0u"
0t"
0s"
0r"
0q"
0(!
0)!
0*!
0+!
0,!
0-!
